<?xml version="1.0" encoding="utf-8"?>
<svg width="1920" height="1080" viewBox="0 0 507.99999 285.75001" version="1.1" id="svg5" xmlns="http://www.w3.org/2000/svg" xmlns:xlink="http://www.w3.org/1999/xlink">
  <defs id="defs2">
    <linearGradient id="linearGradient960">
      <stop style="stop-color:#0000ff;stop-opacity:1" offset="0" id="stop956"/>
      <stop style="stop-color:#000000;stop-opacity:0;" offset="1" id="stop958"/>
    </linearGradient>
    <linearGradient id="linearGradient964" x1="243.77669" y1="285.75" x2="243.77669" y2="185.47295" gradientUnits="userSpaceOnUse" gradientTransform="matrix(1,0,0,1.2192208,0,-348.39232)" xlink:href="#linearGradient960"/>
  </defs>
  <g id="layer1" style="" transform="matrix(1, 0, 0, 0.084409, 0, 0)">
    <rect style="fill: url(#linearGradient964); stroke-width: 1.10419; stroke-linecap: round; paint-order: markers; fill-opacity: 0.35;" id="rect924" width="508" height="122.84004" x="0" y="-122.84004" transform="scale(1,-1)"/>
  </g>
</svg>