<?xml version="1.0" encoding="utf-8"?>
<svg viewBox="0 0 366 366" xmlns="http://www.w3.org/2000/svg">
  <ellipse style="fill: rgba(216, 216, 216, 0); stroke: rgb(255, 130, 130); stroke-width: 2px; stroke-dasharray: 5, 2, 81, 2, 5;" cx="182.778" cy="182.584" rx="120.023" ry="121.584"/>
</svg>