<?xml version="1.0" encoding="utf-8"?>
<svg viewBox="0 0 366 366" xmlns="http://www.w3.org/2000/svg">
  <ellipse style="fill: rgba(216, 216, 216, 0); stroke-dasharray: 48, 100, 3, 12, 2; stroke-width: 2px; stroke: rgb(133, 255, 234);" cx="183.186" cy="182.097" rx="158.315" ry="158.315"/>
</svg>