<svg xmlns="http://www.w3.org/2000/svg" width="160" height="160" fill="white" class="bi bi-intersect" viewBox="0 0 16 16">
  <path d="M0 2a2 2 0 0 1 2-2h8a2 2 0 0 1 2 2v2h2a2 2 0 0 1 2 2v8a2 2 0 0 1-2 2H6a2 2 0 0 1-2-2v-2H2a2 2 0 0 1-2-2V2zm5 10v2a1 1 0 0 0 1 1h8a1 1 0 0 0 1-1V6a1 1 0 0 0-1-1h-2v5a2 2 0 0 1-2 2H5zm6-8V2a1 1 0 0 0-1-1H2a1 1 0 0 0-1 1v8a1 1 0 0 0 1 1h2V6a2 2 0 0 1 2-2h5z"/>
</svg>
